<svg xmlns="http://www.w3.org/2000/svg" width="171.665" height="40.4" viewBox="0 0 171.665 40.4">
  <g id="Group_1314" data-name="Group 1314" transform="translate(-173.605 -497.281)">
    <g id="Group_1314-2" data-name="Group 1314" transform="translate(173.605 497.281)">
      <path id="Path_2106" data-name="Path 2106" d="M174.411,526.34l18.351-29.059,11.675.348q1.106,4.633,2.211,9.267L217,498l14.035.489-15.38,28.542-10.7-.319,8.715-13.533-13.653,7.562-3.058-9.446-8.409,14.927c-1.06-.041-2.489-.09-4.185-.123-4.467-.088-5.555.024-6.352.872a3.639,3.639,0,0,0-.873,3.073,4.291,4.291,0,0,0,2.724,2.843,4.812,4.812,0,0,0,1.752.354h.11c.606-.01,51.343.433,163.55,1.432l-1.093,3.005c-84.22-.3-145.57-.578-150.338-.607,0,0-3.3,0-12.826-.469a8.114,8.114,0,0,1-3.5-.969c-.649-.358-3.8-2.22-3.907-5.833A7.379,7.379,0,0,1,174.411,526.34Z" transform="translate(-173.605 -497.281)" fill="#292d3e"/>
    </g>
    <g id="Search" transform="translate(331.37 515.066)">
      <path id="Path_2107" data-name="Path 2107" d="M398.091,530.556l-2.148-2.32c-.012-.012-.025-.021-.037-.032a4.319,4.319,0,0,0,.76-2.33,4.2,4.2,0,1,0-4.319,4.16,4.121,4.121,0,0,0,2.324-.641c.011.013.018.027.03.04l2.148,2.319a.841.841,0,0,0,1.205.033A.881.881,0,0,0,398.091,530.556Zm-5.7-2a2.795,2.795,0,1,1,2.822-2.718A2.76,2.76,0,0,1,392.391,528.551Z" transform="translate(-388.278 -521.481)" fill="#96a2b4" fill-rule="evenodd"/>
    </g>
    <g id="Group_1315" data-name="Group 1315" transform="translate(230.233 504.355)">
      <text id="eleton.ru" transform="translate(0 21)" fill="#292d3e" font-size="22" font-family="Helvetica-Bold, Helvetica" font-weight="700"><tspan x="0" y="0">eleton.ru</tspan></text>
    </g>
  </g>
</svg>
