<svg xmlns="http://www.w3.org/2000/svg" width="40.024" height="15.325" viewBox="0 0 40.024 15.325">
  <g id="yandex" transform="translate(-12.169 -0.667)">
    <g id="LOGO" transform="translate(12.169 0.667)">
      <g id="_Группа_" data-name="&lt;Группа&gt;">
        <path id="_Составной_контур_" data-name="&lt;Составной контур&gt;" d="M99.732,104.062l-2.3,5.158H95.76l2.523-5.516A3.719,3.719,0,0,1,96.306,100c0-2.824,1.788-4.236,3.916-4.236h2.165V109.22h-1.45v-5.158Zm1.2-7.079h-.772c-1.167,0-2.3.772-2.3,3.012,0,2.165,1.035,2.862,2.3,2.862h.772Z" transform="translate(-95.76 -95.76)" fill="red"/>
        <path id="_Составной_контур_2" data-name="&lt;Составной контур&gt;" d="M174.977,129.342v9.488h-1.45v-4.255h-2.184v4.255h-1.468v-9.488h1.468v4.029h2.184v-4.029Zm7.549,11.352h-1.318V138.83h-4.066v1.864h-1.318v-3.069h.584c.866-2.014.96-4.951.96-7.474v-.81h4.405v8.284h.753Zm-2.2-10.166h-1.638v.169a20.939,20.939,0,0,1-.885,6.928h2.523Zm6.25,8.434c-1.958,0-3.163-1.563-3.163-4.481,0-3.05.847-5.271,2.862-5.271,1.581,0,2.617,1.186,2.617,4.405v.81h-3.954c0,2.146.6,3.276,1.77,3.276a3.29,3.29,0,0,0,1.864-.64l.339,1.13A3.737,3.737,0,0,1,186.574,138.962Zm-1.619-5.742h2.429c0-1.619-.264-2.805-1.111-2.805C185.369,130.415,185.049,131.526,184.955,133.22Zm6.909.885v4.725H190.4v-9.488h1.468v4.387l2.278-4.387h1.487l-2.353,4.462,2.692,5.027h-1.6Zm4.292-.019c0-2.975,1.148-4.876,3.37-4.876a2.986,2.986,0,0,1,1.751.489l-.207,1.393a2.513,2.513,0,0,0-1.563-.659c-1.054,0-1.807,1.186-1.807,3.577,0,2.372.565,3.728,1.751,3.728a2.4,2.4,0,0,0,1.6-.584l.339,1.092a2.872,2.872,0,0,1-1.977.715C197.38,138.962,196.156,137.324,196.156,134.086Z" transform="translate(-161.366 -125.369)"/>
      </g>
    </g>
  </g>
</svg>
